list_wrm_placeables.res
plc_wrmAA.mdl
plc_wrmaa.pwk
plc_wrmAB.mdl
plc_wrmab.pwk
plc_wrmC1.mdl
plc_wrmc1.pwk
plc_wrmC2.mdl
plc_wrmc2.pwk
plc_wrmFA.mdl
plc_wrmfa.pwk
plc_wrmFB.mdl
plc_wrmfb.pwk
plc_wrmM1.mdl
plc_wrmm1.pwk
plc_wrmM2.mdl
plc_wrmm2.pwk
plc_wrmM3.mdl
plc_wrmm3.pwk
plc_wrmP1.mdl
plc_wrmp1.pwk
plc_wrmP2.mdl
plc_wrmp2.pwk
plc_wrmP3.mdl
plc_wrmp3.pwk
plc_wrmPA.mdl
plc_wrmpa.pwk
plc_wrmPB.mdl
plc_wrmpb.pwk
plc_wrmPC.mdl
plc_wrmpc.pwk
plc_wrmR1.mdl
plc_wrmr1.pwk
plc_wrmR2.mdl
plc_wrmr2.pwk
plc_wrmR3.mdl
plc_wrmr3.pwk
plc_wrmR4.mdl
plc_wrmr4.pwk
plc_wrmR5.mdl
plc_wrmr5.pwk
plc_wrmR6.mdl
plc_wrmr6.pwk
plc_wrmT2.mdl
plc_wrmt2.pwk
plc_wrmT3.mdl
plc_wrmt3.pwk
plc_wrmW1.mdl
plc_wrmw1.pwk
plc_wrmWA.mdl
plc_wrmwa.pwk
plc_wrmWB.mdl
plc_wrmwb.pwk
plc_wrm_alpha1.tga
plc_wrm_Cypress.tga
plc_wrm_LeavesF.tga
plc_wrm_LeavesP.tga
plc_wrm_LeavesS.tga
plc_wrm_LeavesW.tga
plc_wrm_mush1.tga
plc_wrm_SpruceS.tga
plc_wrm_SpruceW.tga
plc_wrm_Stne.tga
plc_wrm_Willow.tga
plc_wrm_woodO.tga
plc_wrm_woodS.tga
plc_wrm_woodW.tga
