barktree-willow.tga
blur_01.tga
chrome1.tga
cyric_tex.tga
c_horse.ssf
c_killian.ssf
c_snake.ssf
c_werewolf.mdl
c_werewolf2.tga
c_werewolfeye.tga
c_werewolfmne.tga
c_werewolftth.tga
DTH_effect_6.tga
DTH_effect_6.txi
DTH_FIRE.tga
DTH_MEG_LISTI1.mdl
DTH_MEG_LISTI2.mdl
DTH_MEG_LISTI3.mdl
DTH_MEG_VRBA1.mdl
DTH_MEG_VRBA2.mdl
DTH_MEG_VRBA3.mdl
DTH_neg.tga
DTH_neg.txi
DTH_symbl_01.tga
DTH_symbl_01.txi
DTH_symbl_02.tga
DTH_symbl_02.txi
DTH_symbl_03.tga
DTH_symbl_03.txi
DTH_symbl_04.tga
DTH_symbl_04.txi
DTH_VFX1.mdl
DTH_VFX2.mdl
DTH_VFX3.mdl
DTH_VFX4.mdl
DTH_VFX5.mdl
DTH_VFX6.mdl
DTH_VFX7.mdl
DTH_VFX8.mdl
DTH_VFX9.mdl
DTH_wave.tga
DTH_wave.txi
effect_1.tga
effect_1.txi
effekt_1.tga
effekt_1.txi
epic_diamd.tga
epic_emrld.tga
epic_saphr.tga
fxpa_bfirebb.tga
fxpa_bfirebb.txi
fxpa_blflame02.tga
fxpa_blflame02.txi
fxpa_blueflare1.tga
fxpa_blueflare1.txi
fxpa_bubble.dds
fxpa_cuacid.tga
fxpa_drip.dds
fxpa_drip.tga
fxpa_drip.txi
fxpa_elect.tga
fxpa_eye2.tga
fxpa_eye2.txi
fxpa_firebl.dds
fxpa_flame00.tga
fxpa_flame02.tga
fxpa_flame04.tga
fxpa_flame05.tga
fxpa_flame05b.tga
fxpa_flame05b.txi
fxpa_flame06.dds
fxpa_flame06.txi
fxpa_garrow.tga
fxpa_ice.dds
fxpa_ice.tga
fxpa_ice.txi
fxpa_iceflare.tga
fxpa_iceflare.txi
fxpa_lbolt2l.tga
fxpa_lensring.tga
fxpa_lokafk.tga
fxpa_magma.dds
fxpa_newflare.tga
fxpa_newflare.txi
fxpa_newflare02.tga
fxpa_newflare02.txi
fxpa_ooze2.tga
fxpa_petal.dds
fxpa_petal.tga
fxpa_petal.txi
fxpa_pfire.tga
fxpa_rain01.tga
fxpa_rip1.tga
fxpa_smoke01.tga
fxpa_SMOKE01I.dds
fxpa_sparks.tga
fxpa_web.tga
fxpa_white.tga
fx_flame01.mdl
fx_lanshard0.mdl
fx_lanshard1.mdl
fx_lanshard2.mdl
fx_lanshard3.mdl
fx_pdkfear.mdl
grs_tree-willow.tga
ife_allhopelost.tga
ife_anarchyscall.tga
ife_animusblast.tga
ife_animusblizz.tga
ife_armyunfallen.tga
ife_audience.tga
ife_battlebound.tga
ife_celescouncil.tga
ife_championsval.tga
ife_continresur.tga
ife_continreun.tga
ife_deadeyesense.tga
ife_deathmark.tga
ife_direwinter.tga
ife_dreamscape.tga
ife_dullblades.tga
ife_dweomerthief.tga
ife_enslave.tga
ife_epAchillesHe.tga
Ife_epAlliance1.tga
Ife_epAlliance2.tga
Ife_epAlliance3.tga
ife_epAlliedMa.tga
Ife_epHerculean.tga
Ife_epHerculeanE.tga
ife_epicrepuls.tga
Ife_epLeechField.tga
Ife_epLifeForce.tga
Ife_epMagmaBurst.tga
ife_epNailed.tga
ife_epspellrefl.tga
Ife_epStormMantl.tga
Ife_epSymrustar.tga
Ife_epTolodine.tga
Ife_epWhipofShar.tga
ife_eternfreed.tga
ife_fiendwords.tga
ife_fleetness.tga
ife_gemcage.tga
ife_godsmite.tga
ife_greatspellre.tga
ife_gr_timestop.tga
ife_hellsend.tga
ife_impenetrab.tga
ife_legendaryart.tga
ife_masspenguin.tga
ife_momentomori.tga
ife_nightsundo.tga
ife_orderrestore.tga
ife_pathsknown.tga
ife_peerlesspen.tga
ife_pestilence.tga
ife_piousparley.tga
ife_planarcell.tga
ife_psionicsalvo.tga
ife_rainoffire.tga
ife_risenreunite.tga
ife_ruin.tga
ife_SD_AnimateD.tga
ife_SD_Armor.tga
ife_SD_Banish.tga
ife_SD_Heal.tga
ife_SD_Life.tga
ife_SD_Reveal.tga
ife_SD_Slay.tga
ife_SD_Ward.tga
ife_seed_aff.tga
ife_seed_and.tga
ife_seed_ani.tga
ife_seed_ccl.tga
ife_seed_cnj.tga
ife_seed_com.tga
ife_seed_con.tga
ife_seed_del.tga
ife_seed_des.tga
ife_seed_dis.tga
ife_seed_ene.tga
ife_seed_for.tga
ife_seed_frt.tga
ife_seed_light.tga
ife_seed_oppos.tga
ife_seed_ref.tga
ife_seed_shadow.tga
ife_seed_sum.tga
ife_seed_time.tga
ife_seed_trm.tga
ife_seed_trt.tga
ife_singularsund.tga
ife_spellworm.tga
ife_summonaberat.tga
ife_superbdisp.tga
ife_thewither.tga
ife_transcvital.tga
ife_twinfiend.tga
ife_unholydisc.tga
ife_unimpinged.tga
ife_unseenwander.tga
ilmater_tex.tga
ir_dla_amount.tga
ir_dla_dismount.tga
ir_dla_gmount.tga
ir_dla_horse.tga
ir_dla_mount.tga
ir_dla_pdk.tga
ir_dla_pdmount.tga
ir_dla_pmount.tga
isk_dla_ride.tga
is_acidarrow.tga
is_acidfog.tga
is_aid.tga
is_animdead.tga
is_armorstone.tga
is_arrowsilenc.tga
is_auravital.tga
is_awaken.tga
is_barkskin.tga
is_beheadblade.tga
is_bescurse.tga
is_bladebar.tga
is_bless.tga
is_blessweap.tga
is_blinddeaf.tga
is_blssweap.tga
is_bullstr.tga
is_burnhands.tga
is_calllightn.tga
is_calmemot.tga
is_catgrace.tga
is_charmani.tga
is_charmmon.tga
is_charmper.tga
is_chlightn.tga
is_circchaos.tga
is_circdeath.tga
is_circdoom.tga
is_circevil.tga
is_circgood.tga
is_circlaw.tga
is_clairadvo.tga
is_clarity.tga
is_cleavhealth.tga
is_cloakchaos.tga
is_cloudkill.tga
is_colspray.tga
is_conecold.tga
is_confusion.tga
is_contagion.tga
is_conund.tga
is_crgrund.tga
is_crpdoom.tga
is_crundead.tga
is_curcrwnds.tga
is_curlgtw.tga
is_curminw.tga
is_curmodw.tga
is_curserw.tga
is_darkness.tga
is_darkvis.tga
is_daze.tga
is_deaward.tga
is_delfireball.tga
is_destruc.tga
is_disarmwave.tga
is_dismagic.tga
is_dismissal.tga
is_dissonance.tga
is_divpower.tga
is_doman.tga
is_dommon.tga
is_dompers.tga
is_doom.tga
is_eaglespl.tga
is_eleswarm.tga
is_endelem.tga
is_endurce.tga
is_enebuff.tga
is_enedrain.tga
is_enervat.tga
is_entangle.tga
is_ethvis.tga
is_evards.tga
is_faeriefire.tga
is_fear.tga
is_feebmind.tga
is_fieldflame.tga
is_findtrap.tga
is_fingdeath.tga
is_fireball.tga
is_fireshld.tga
is_firestrm.tga
is_flmarrow.tga
is_flmblade.tga
is_flmlash.tga
is_flmstrike.tga
is_foxcunng.tga
is_freemove.tga
is_funeralpyre.tga
is_gate.tga
is_geyser.tga
is_ghostvis.tga
is_ghoultch.tga
is_globeinv.tga
is_grbullstr.tga
is_grcatsgr.tga
is_grdispel.tga
is_greaglesp.tga
is_grease.tga
is_grendur.tga
is_grfoxcu.tga
is_grmgweap.tga
is_growlwis.tga
is_grplanar.tga
is_grrestore.tga
is_grshconj.tga
is_grspbrch.tga
is_grspturn.tga
is_grstonesk.tga
is_gustwind.tga
is_hammgods.tga
is_harm.tga
is_haste.tga
is_heal.tga
is_healcirc.tga
is_heartbeast.tga
is_holdanim.tga
is_holdmon.tga
is_holdpers.tga
is_holyaura.tga
is_holyswrd.tga
is_horrwilt.tga
is_hypothermia.tga
is_icearmor.tga
is_icestorm.tga
is_identify.tga
is_implosion.tga
is_imprinvis.tga
is_inccloud.tga
is_invisib.tga
is_invpurge.tga
is_invsph.tga
is_knock.tga
is_light.tga
is_lightnbolt.tga
is_lore.tga
is_lsdispel.tga
is_lsmndblk.tga
is_lsplanar.tga
is_lsrestor.tga
is_lsspbrch.tga
is_lsspturn.tga
is_magearm.tga
is_magmiss.tga
is_magvest.tga
is_magweap.tga
is_masdomn.tga
is_mashaste.tga
is_masheal.tga
is_massbldf.tga
is_metswarm.tga
is_microburst.tga
is_mindblk.tga
is_mindfog.tga
is_minglobe.tga
is_morddisj.tga
is_mordswrd.tga
is_mscharm.tga
is_naturbal.tga
is_negburst.tga
is_negprot.tga
is_negray.tga
is_neutpois.tga
is_owlwis.tga
is_phankill.tga
is_planar.tga
is_plantarmor.tga
is_poison.tga
is_polyself.tga
is_prayer.tga
is_prchaos.tga
is_prelement.tga
is_premo.tga
is_previl.tga
is_prgood.tga
is_prisspray.tga
is_prlaw.tga
is_protalign.tga
is_protaura.tga
is_protcircl.tga
is_prspells.tga
is_pwkill.tga
is_pwstun.tga
is_raisdead.tga
is_rayenfeeb.tga
is_rayfrost.tga
is_regen.tga
is_reselem.tga
is_resis.tga
is_restore.tga
is_resurrec.tga
is_rmvblddef.tga
is_rmvcurse.tga
is_rmvdiseas.tga
is_rmvfear.tga
is_rmvparal.tga
is_sanctuary.tga
is_scare.tga
is_searlght.tga
is_seeinvis.tga
is_shadconj.tga
is_shades.tga
is_shadshld.tga
is_shapechg.tga
is_shldlaw.tga
is_silence.tga
is_slaylive.tga
is_sleep.tga
is_slow.tga
is_sndburst.tga
is_sphchaos.tga
is_spherdenial.tga
is_splresis.tga
is_splturn.tga
is_stinkcld.tga
is_stoneform.tga
is_stoneskn.tga
is_stormveng.tga
is_summon1.tga
is_summon2.tga
is_summon3.tga
is_summon4.tga
is_summon5.tga
is_summon6.tga
is_summon7.tga
is_summon8.tga
is_summon9.tga
is_summonally.tga
is_summshad.tga
is_sunbeam.tga
is_tenstrans.tga
is_thunderclap.tga
is_timestop.tga
is_transferenc.tga
is_truesee.tga
is_unhaura.tga
is_vamptch.tga
is_virtue.tga
is_wailbansh.tga
is_wallfire.tga
is_warcry.tga
is_waterbreath.tga
is_web.tga
is_weird.tga
is_wordfaith.tga
is_x1acidsp.tga
is_x1amplif.tga
is_x1aurglo.tga
is_x1bala.tga
is_x1bane.tga
is_x1banish.tga
is_x1bigby1.tga
is_x1bigby2.tga
is_x1bigby3.tga
is_x1bigby4.tga
is_x1bigby5.tga
is_x1bldfre.tga
is_x1bombar.tga
is_x1camo.tga
is_x1confla.tga
is_x1dirge.tga
is_x1displace.tga
is_x1divfav.tga
is_x1drown.tga
is_x1earth.tga
is_x1elejol.tga
is_x1eshield.tga
is_x1ether.tga
is_x1expret.tga
is_x1firebra.tga
is_x1flare.tga
is_x1flssto.tga
is_x1gmagfan.tga
is_x1gremis.tga
is_x1gustwind.tga
is_x1infcri.tga
is_x1inferno.tga
is_x1inflig.tga
is_x1infmin.tga
is_x1infmod.tga
is_x1infser.tga
is_x1lesmis.tga
is_x1magfan.tga
is_x1mascamo.tga
is_x1onelan.tga
is_x1owlins.tga
is_x1plaall.tga
is_x1quill.tga
is_x1shield.tga
is_x1shlfat.tga
is_x1spigro.tga
is_x1stofls.tga
is_x1sunbur.tga
is_x1taslaf.tga
is_x1trustr.tga
is_x1undfoe.tga
is_x1wouwhis.tga
is_x2acidbrth.tga
is_x2acidshth.tga
is_x2balllghtng.tga
is_x2batttide.tga
is_x2blckblde.tga
is_x2blckstff.tga
is_x2bldethst.tga
is_x2blssweap.tga
is_x2cldbwld.tga
is_x2combust.tga
is_x2crumble.tga
is_x2darkfire.tga
is_x2deafclng.tga
is_x2dtharm.tga
is_x2elecloop.tga
is_x2epicward.tga
is_x2flmeweap.tga
is_x2glphward.tga
is_x2grmgweap.tga
is_x2grtthdclp.tga
is_x2healstng.tga
is_x2holyswrd.tga
is_x2horiboom.tga
is_x2icedagg.tga
is_x2infstmag.tga
is_x2ironguts.tga
is_x2keenedge.tga
is_x2magcweap.tga
is_x2magvest.tga
is_x2monregen.tga
is_x2persblde.tga
is_x2restoreoth.tga
is_x2scntsphere.tga
is_x2spdraknt.tga
is_x2sphellbal.tga
is_x2spmagarm.tga
is_x2spmumdst.tga
is_x2spruin.tga
is_x2stnbones.tga
is_x2stnehold.tga
is_x2sumshad.tga
is_x2tidebattle.tga
is_x2undeath.tga
is_x2vinemcam.tga
is_x2vinement.tga
is_x2vinemhmp.tga
is_x2vinemine.tga
lath_sm_tex.tga
list_models_02.res
malar_tex.tga
nm_cav.tga
pdrag_tex.tga
psi_burst.mdl
psi_concusblast.mdl
psi_eneradapt.mdl
psi_intelfort.mdl
psi_notimebody.mdl
psi_shadbody.mdl
psi_synesthete.mdl
psi_tempaccel.mdl
psi_ultrablst.mdl
var_detplants.mdl
var_wavexhaust.mdl
vce_negblast.mdl
vco_canaries.mdl
vco_grnco.mdl
vco_icyspray.mdl
vco_resurection.mdl
vco_sparklies1.mdl
vco_sparklies2.mdl
vco_spconj1.mdl
vco_sp_g_regen.mdl
vco_sp_h_regen.mdl
vco_sp_symblhpg.mdl
vco_sp_symbl_hp.mdl
vco_symbols.mdl
vco_vortex.mdl
vdr_antilife.mdl
vdr_blueshield.mdl
vdr_blue_hand.mdl
vdr_blue_hand2.mdl
vdr_circlaw.mdl
vdr_coldshield.mdl
vdr_colshield02.mdl
vdr_colshield03.mdl
vdr_divshofa.mdl
vdr_drkshadows.mdl
vdr_floatdisk.mdl
vdr_fw_spark.mdl
vdr_fw_spark_blu.mdl
vdr_fw_spark_red.mdl
vdr_globe.mdl
vdr_lightningbl.mdl
vdr_obscmist.mdl
vdr_pfe_acid.mdl
vdr_pfe_cold.mdl
vdr_pfe_elect.mdl
vdr_pfe_fire.mdl
vdr_pfe_sonic.mdl
vdr_prismsphere.mdl
vdr_prismwall.mdl
vdr_protarrows.mdl
vdr_protenergy.mdl
vdr_sp_anhil.mdl
vdr_sp_resist.mdl
vdr_stormofven.mdl
vdr_xlglobe.mdl
vff_calmanims.mdl
vff_chaoshammer.mdl
vff_dragstrike.mdl
vff_explice.mdl
vff_feeblemind.mdl
vff_fw_blur.mdl
vff_fw_blur_blue.mdl
vff_fw_blur_gree.mdl
vff_fw_blur_oran.mdl
vff_fw_blur_purp.mdl
vff_fw_blur_red.mdl
vff_fw_blur_whit.mdl
vff_fw_blur_yel.mdl
vff_fw_bl_b_blue.mdl
vff_fw_bl_b_gree.mdl
vff_fw_bl_b_oran.mdl
vff_fw_bl_b_purp.mdl
vff_fw_bl_b_red.mdl
vff_fw_bl_b_whit.mdl
vff_fw_bl_b_yel.mdl
vff_fw_bl_s_blue.mdl
vff_fw_bl_s_gree.mdl
vff_fw_bl_s_oran.mdl
vff_fw_bl_s_purp.mdl
vff_fw_bl_s_red.mdl
vff_fw_bl_s_whit.mdl
vff_fw_bl_s_yel.mdl
vff_fw_flame.mdl
vff_fw_flame_blu.mdl
vff_fw_flame_gre.mdl
vff_fw_flame_pur.mdl
vff_fw_spir_d_bl.mdl
vff_fw_spir_d_fi.mdl
vff_fw_spir_d_gr.mdl
vff_fw_spir_d_pu.mdl
vff_fw_spir_d_re.mdl
vff_fw_spir_d_wh.mdl
vff_fw_spir_s_bl.mdl
vff_fw_spir_s_fi.mdl
vff_fw_spir_s_gr.mdl
vff_fw_spir_s_pu.mdl
vff_fw_spir_s_re.mdl
vff_fw_spir_s_wh.mdl
vff_fw_sp_fairy.mdl
vff_fw_sp_spiral.mdl
vff_fw_sp_wraith.mdl
vff_fw_star_b_bl.mdl
vff_fw_star_b_gr.mdl
vff_fw_star_b_or.mdl
vff_fw_star_b_pu.mdl
vff_fw_star_b_re.mdl
vff_fw_star_b_wh.mdl
vff_fw_star_b_ye.mdl
vff_fw_star_s_bl.mdl
vff_fw_star_s_gr.mdl
vff_fw_star_s_or.mdl
vff_fw_star_s_pu.mdl
vff_fw_star_s_re.mdl
vff_fw_star_s_wh.mdl
vff_fw_star_s_ye.mdl
vff_meteorhit.mdl
vff_newword.mdl
vff_newword_l.mdl
vff_red_symbl.mdl
vff_soultrap.mdl
vff_sp_regen.mdl
vff_strkchaos.mdl
vfx_backpack.mdl
vfx_backpack2.mdl
vfx_eyesblu_fa.mdl
vfx_eyesblu_fd.mdl
vfx_eyesblu_fe.mdl
vfx_eyesblu_fg.mdl
vfx_eyesblu_fh.mdl
vfx_eyesblu_fo.mdl
vfx_eyesblu_ma.mdl
vfx_eyesblu_md.mdl
vfx_eyesblu_me.mdl
vfx_eyesblu_mg.mdl
vfx_eyesblu_mh.mdl
vfx_eyesblu_mo.mdl
vfx_eyesgre_fa.mdl
vfx_eyesgre_fd.mdl
vfx_eyesgre_fe.mdl
vfx_eyesgre_fg.mdl
vfx_eyesgre_fh.mdl
vfx_eyesgre_fo.mdl
vfx_eyesgre_ma.mdl
vfx_eyesgre_md.mdl
vfx_eyesgre_me.mdl
vfx_eyesgre_mg.mdl
vfx_eyesgre_mh.mdl
vfx_eyesgre_mo.mdl
vfx_eyesora_fa.mdl
vfx_eyesora_fd.mdl
vfx_eyesora_fe.mdl
vfx_eyesora_fg.mdl
vfx_eyesora_fh.mdl
vfx_eyesora_fo.mdl
vfx_eyesora_ma.mdl
vfx_eyesora_md.mdl
vfx_eyesora_me.mdl
vfx_eyesora_mg.mdl
vfx_eyesora_mh.mdl
vfx_eyesora_mo.mdl
vfx_eyespur_fa.mdl
vfx_eyespur_fd.mdl
vfx_eyespur_fe.mdl
vfx_eyespur_fg.mdl
vfx_eyespur_fh.mdl
vfx_eyespur_fo.mdl
vfx_eyespur_ma.mdl
vfx_eyespur_md.mdl
vfx_eyespur_me.mdl
vfx_eyespur_mg.mdl
vfx_eyespur_mh.mdl
vfx_eyespur_mo.mdl
vfx_eyesred_fa.mdl
vfx_eyesred_fd.mdl
vfx_eyesred_fe.mdl
vfx_eyesred_fg.mdl
vfx_eyesred_fh.mdl
vfx_eyesred_fo.mdl
vfx_eyesred_ma.mdl
vfx_eyesred_md.mdl
vfx_eyesred_me.mdl
vfx_eyesred_mg.mdl
vfx_eyesred_mh.mdl
vfx_eyesred_mo.mdl
vfx_eyeswhi_fa.mdl
vfx_eyeswhi_fd.mdl
vfx_eyeswhi_fe.mdl
vfx_eyeswhi_fg.mdl
vfx_eyeswhi_fh.mdl
vfx_eyeswhi_fo.mdl
vfx_eyeswhi_ma.mdl
vfx_eyeswhi_md.mdl
vfx_eyeswhi_me.mdl
vfx_eyeswhi_mg.mdl
vfx_eyeswhi_mh.mdl
vfx_eyeswhi_mo.mdl
vfx_eyesyel_fa.mdl
vfx_eyesyel_fd.mdl
vfx_eyesyel_fe.mdl
vfx_eyesyel_fg.mdl
vfx_eyesyel_fh.mdl
vfx_eyesyel_fo.mdl
vfx_eyesyel_ma.mdl
vfx_eyesyel_md.mdl
vfx_eyesyel_me.mdl
vfx_eyesyel_mg.mdl
vfx_eyesyel_mh.mdl
vfx_eyesyel_mo.mdl
vfx_gohorns_mh.tga
vfx_helm05_fa.mdl
vfx_helm05_fd.mdl
vfx_helm05_fe.mdl
vfx_helm05_fg.mdl
vfx_helm05_fh.mdl
vfx_helm05_fo.mdl
vfx_helm05_ma.mdl
vfx_helm05_md.mdl
vfx_helm05_me.mdl
vfx_helm05_mg.mdl
vfx_helm05_mh.mdl
vfx_helm05_mh.tga
vfx_helm05_mo.mdl
vfx_helm08_fa.mdl
vfx_helm08_fd.mdl
vfx_helm08_fe.mdl
vfx_helm08_fg.mdl
vfx_helm08_fh.mdl
vfx_helm08_fo.mdl
vfx_helm08_ma.mdl
vfx_helm08_md.mdl
vfx_helm08_me.mdl
vfx_helm08_mg.mdl
vfx_helm08_mh.mdl
vfx_helm08_mh.tga
vfx_helm08_mo.mdl
vfx_helm09_fa.mdl
vfx_helm09_fd.mdl
vfx_helm09_fe.mdl
vfx_helm09_fg.mdl
vfx_helm09_fh.mdl
vfx_helm09_fo.mdl
vfx_helm09_ma.mdl
vfx_helm09_md.mdl
vfx_helm09_me.mdl
vfx_helm09_mg.mdl
vfx_helm09_mh.mdl
vfx_helm09_mh.tga
vfx_helm09_mo.mdl
vfx_helm12_fa.mdl
vfx_helm12_fd.mdl
vfx_helm12_fe.mdl
vfx_helm12_fg.mdl
vfx_helm12_fh.mdl
vfx_helm12_fo.mdl
vfx_helm12_ma.mdl
vfx_helm12_md.mdl
vfx_helm12_me.mdl
vfx_helm12_mg.mdl
vfx_helm12_mh.mdl
vfx_helm12_mh.tga
vfx_helm12_mo.mdl
vfx_helm13_fa.mdl
vfx_helm13_fd.mdl
vfx_helm13_fe.mdl
vfx_helm13_fg.mdl
vfx_helm13_fh.mdl
vfx_helm13_fo.mdl
vfx_helm13_ma.mdl
vfx_helm13_md.mdl
vfx_helm13_me.mdl
vfx_helm13_mg.mdl
vfx_helm13_mh.mdl
vfx_helm13_mh.tga
vfx_helm13_mo.mdl
vfx_helm14_fa.mdl
vfx_helm14_fd.mdl
vfx_helm14_fe.mdl
vfx_helm14_fg.mdl
vfx_helm14_fh.mdl
vfx_helm14_fo.mdl
vfx_helm14_ma.mdl
vfx_helm14_md.mdl
vfx_helm14_me.mdl
vfx_helm14_mg.mdl
vfx_helm14_mh.mdl
vfx_helm14_mh.tga
vfx_helm14_mo.mdl
vfx_helm16_fa.mdl
vfx_helm16_fd.mdl
vfx_helm16_fe.mdl
vfx_helm16_fg.mdl
vfx_helm16_fh.mdl
vfx_helm16_fo.mdl
vfx_helm16_ma.mdl
vfx_helm16_md.mdl
vfx_helm16_me.mdl
vfx_helm16_mg.mdl
vfx_helm16_mh.mdl
vfx_helm16_mh.tga
vfx_helm16_mo.mdl
vfx_helm17_fa.mdl
vfx_helm17_fd.mdl
vfx_helm17_fe.mdl
vfx_helm17_fg.mdl
vfx_helm17_fh.mdl
vfx_helm17_fo.mdl
vfx_helm17_ma.mdl
vfx_helm17_md.mdl
vfx_helm17_me.mdl
vfx_helm17_mg.mdl
vfx_helm17_mh.mdl
vfx_helm17_mh.tga
vfx_helm17_mo.mdl
vfx_helm20_fa.mdl
vfx_helm20_fd.mdl
vfx_helm20_fe.mdl
vfx_helm20_fg.mdl
vfx_helm20_fh.mdl
vfx_helm20_fo.mdl
vfx_helm20_ma.mdl
vfx_helm20_md.mdl
vfx_helm20_me.mdl
vfx_helm20_mg.mdl
vfx_helm20_mh.mdl
vfx_helm20_mh.tga
vfx_helm20_mo.mdl
vfx_helm24_fa.mdl
vfx_helm24_fd.mdl
vfx_helm24_fe.mdl
vfx_helm24_fg.mdl
vfx_helm24_fh.mdl
vfx_helm24_fo.mdl
vfx_helm24_ma.mdl
vfx_helm24_md.mdl
vfx_helm24_me.mdl
vfx_helm24_mg.mdl
vfx_helm24_mh.mdl
vfx_helm24_mh.tga
vfx_helm24_mo.mdl
vfx_helm28_fa.mdl
vfx_helm28_fd.mdl
vfx_helm28_fe.mdl
vfx_helm28_fg.mdl
vfx_helm28_fh.mdl
vfx_helm28_fo.mdl
vfx_helm28_ma.mdl
vfx_helm28_md.mdl
vfx_helm28_me.mdl
vfx_helm28_mg.mdl
vfx_helm28_mh.mdl
vfx_helm28_mh.tga
vfx_helm28_mo.mdl
vfx_helm29_fa.mdl
vfx_helm29_fd.mdl
vfx_helm29_fe.mdl
vfx_helm29_fg.mdl
vfx_helm29_fh.mdl
vfx_helm29_fo.mdl
vfx_helm29_ma.mdl
vfx_helm29_md.mdl
vfx_helm29_me.mdl
vfx_helm29_mg.mdl
vfx_helm29_mh.mdl
vfx_helm29_mh.tga
vfx_helm29_mo.mdl
vfx_helm30_fa.mdl
vfx_helm30_fd.mdl
vfx_helm30_fe.mdl
vfx_helm30_fg.mdl
vfx_helm30_fh.mdl
vfx_helm30_fo.mdl
vfx_helm30_ma.mdl
vfx_helm30_md.mdl
vfx_helm30_me.mdl
vfx_helm30_mg.mdl
vfx_helm30_mh.mdl
vfx_helm30_mh.tga
vfx_helm30_mo.mdl
vfx_helm32_fa.mdl
vfx_helm32_fd.mdl
vfx_helm32_fe.mdl
vfx_helm32_fg.mdl
vfx_helm32_fh.mdl
vfx_helm32_fo.mdl
vfx_helm32_ma.mdl
vfx_helm32_md.mdl
vfx_helm32_me.mdl
vfx_helm32_mg.mdl
vfx_helm32_mh.mdl
vfx_helm32_mh.tga
vfx_helm32_mo.mdl
vfx_hornsant_fa.mdl
vfx_hornsant_fd.mdl
vfx_hornsant_fe.mdl
vfx_hornsant_fg.mdl
vfx_hornsant_fh.mdl
vfx_hornsant_fo.mdl
vfx_hornsant_ma.mdl
vfx_hornsant_md.mdl
vfx_hornsant_me.mdl
vfx_hornsant_mg.mdl
vfx_hornsant_mh.mdl
vfx_hornsant_mh.tga
vfx_hornsant_mo.mdl
vfx_hornsbal_fa.mdl
vfx_hornsbal_fd.mdl
vfx_hornsbal_fe.mdl
vfx_hornsbal_fg.mdl
vfx_hornsbal_fh.mdl
vfx_hornsbal_fo.mdl
vfx_hornsbal_ma.mdl
vfx_hornsbal_md.mdl
vfx_hornsbal_me.mdl
vfx_hornsbal_mg.mdl
vfx_hornsbal_mh.mdl
vfx_hornsbal_mo.mdl
vfx_hornsdra_fa.mdl
vfx_hornsdra_fd.mdl
vfx_hornsdra_fe.mdl
vfx_hornsdra_fg.mdl
vfx_hornsdra_fh.mdl
vfx_hornsdra_fo.mdl
vfx_hornsdra_ma.mdl
vfx_hornsdra_md.mdl
vfx_hornsdra_me.mdl
vfx_hornsdra_mg.mdl
vfx_hornsdra_mh.mdl
vfx_hornsdra_mo.mdl
vfx_hornsmep_fa.mdl
vfx_hornsmep_fd.mdl
vfx_hornsmep_fe.mdl
vfx_hornsmep_fg.mdl
vfx_hornsmep_fh.mdl
vfx_hornsmep_fo.mdl
vfx_hornsmep_ma.mdl
vfx_hornsmep_md.mdl
vfx_hornsmep_me.mdl
vfx_hornsmep_mg.mdl
vfx_hornsmep_mh.mdl
vfx_hornsmep_mo.mdl
vfx_hornsox_fa.mdl
vfx_hornsox_fd.mdl
vfx_hornsox_fe.mdl
vfx_hornsox_fg.mdl
vfx_hornsox_fh.mdl
vfx_hornsox_fo.mdl
vfx_hornsox_ma.mdl
vfx_hornsox_md.mdl
vfx_hornsox_me.mdl
vfx_hornsox_mg.mdl
vfx_hornsox_mh.mdl
vfx_hornsox_mo.mdl
vfx_hornsram_fa.mdl
vfx_hornsram_fd.mdl
vfx_hornsram_fe.mdl
vfx_hornsram_fg.mdl
vfx_hornsram_fh.mdl
vfx_hornsram_fo.mdl
vfx_hornsram_ma.mdl
vfx_hornsram_md.mdl
vfx_hornsram_me.mdl
vfx_hornsram_mg.mdl
vfx_hornsram_mh.mdl
vfx_hornsram_mo.mdl
vfx_hornsrot_fa.mdl
vfx_hornsrot_fd.mdl
vfx_hornsrot_fe.mdl
vfx_hornsrot_fg.mdl
vfx_hornsrot_fh.mdl
vfx_hornsrot_fo.mdl
vfx_hornsrot_ma.mdl
vfx_hornsrot_md.mdl
vfx_hornsrot_me.mdl
vfx_hornsrot_mg.mdl
vfx_hornsrot_mh.mdl
vfx_hornsrot_mo.mdl
vid_vortex.mdl
vim_armageddon.mdl
vim_augory.mdl
vim_awaken.mdl
vim_batsgib.mdl
vim_bolt1.mdl
vim_bolt2.mdl
vim_chaoham.mdl
vim_deathwatch.mdl
vim_dimanchor.mdl
vim_dimdoor2.mdl
vim_dimdoor3.mdl
vim_dimlock.mdl
vim_disentigrate.mdl
vim_earthqk.mdl
vim_ent_shield.mdl
vim_epicgem.mdl
vim_epicgemb.mdl
vim_epicgemd.mdl
vim_faerfire.mdl
vim_freedom.mdl
vim_frostspike.mdl
vim_glitterdust.mdl
vim_hellfire.mdl
vim_hellfirestrm.mdl
vim_imprison.mdl
vim_insanity.mdl
vim_lashice.mdl
vim_lok_afk.mdl
vim_magred.mdl
vim_magrock.mdl
vim_magweapon.mdl
vim_maze.mdl
vim_pwblind.mdl
vim_regenerate.mdl
vim_shillelagh.mdl
vim_summons1.mdl
vim_sum_nally1.mdl
vmh0_axe.mdl
vmh0_axe_b.mdl
vmh0_bowcase.mdl
vmh0_bowcaseonly.mdl
vmh0_cloak.mdl
vmh0_cloak2.mdl
vmh0_dlaquiver.mdl
vmh0_dlaquiver_s.mdl
vmh0_hammer.mdl
vmh0_hammer_b.mdl
vmh0_scabbard.mdl
vmh0_scabbard2.mdl
vmh0_scabbardswd.mdl
vmh0_scabbard_b.mdl
vmh0_scbdswd2.mdl
vmh0_scbdswd_b.mdl
vmh0_shield.mdl
vmh0_shield2.mdl
vmh0_shield3.mdl
vmh0_shield4.mdl
vmh0_shield5.mdl
vmh0_shield6.mdl
vmh0_shield7.mdl
vmh0_shield8.mdl
vmh0_shieldelf.mdl
vmh0_shieldorc.mdl
vmh0_shwkquiver.mdl
vmh0_shwkquiver_.mdl
vmh0_sswdsc_lb.mdl
vmh0_sswdsc_ls.mdl
vmh0_sswdsc_rb.mdl
vmh0_sswdsc_rs.mdl
vmh0_sswd_lb.mdl
vmh0_sswd_ls.mdl
vmh0_sswd_rb.mdl
vmh0_sswd_rs.mdl
vmh0_waxgr.mdl
vmh0_waxgr_h.mdl
vmh0_wswgs.mdl
vmh0_wswgs_h.mdl
vmo0_test.mdl
vper_elemsfire.mdl
vper_elemswater.mdl
vpr_blast_b_blue.mdl
vpr_blast_b_gree.mdl
vpr_blast_b_oran.mdl
vpr_blast_b_purp.mdl
vpr_blast_b_red.mdl
vpr_blast_b_whit.mdl
vpr_blast_b_yel.mdl
vpr_blast_s_blue.mdl
vpr_blast_s_gree.mdl
vpr_blast_s_oran.mdl
vpr_blast_s_purp.mdl
vpr_blast_s_red.mdl
vpr_blast_s_whit.mdl
vpr_blast_s_yel.mdl
vpr_blue.mdl
vpr_blur.mdl
vpr_blur_blue.mdl
vpr_blur_gree.mdl
vpr_blur_oran.mdl
vpr_blur_purp.mdl
vpr_blur_red.mdl
vpr_blur_whit.mdl
vpr_blur_yel.mdl
vpr_flame.mdl
vpr_flame_blue.mdl
vpr_flame_green.mdl
vpr_flame_orange.mdl
vpr_flame_purple.mdl
vpr_flame_red.mdl
vpr_flame_white.mdl
vpr_flame_yellow.mdl
vpr_gree.mdl
vpr_icescrew.mdl
vpr_imprison.mdl
vpr_magehand.mdl
vpr_meteorswarm.mdl
vpr_oran.mdl
vpr_otilcold.mdl
vpr_purp.mdl
vpr_red.mdl
vpr_redmisl.mdl
vpr_spiral_d_bl.mdl
vpr_spiral_d_fi.mdl
vpr_spiral_d_gr.mdl
vpr_spiral_d_pu.mdl
vpr_spiral_d_re.mdl
vpr_spiral_d_wh.mdl
vpr_spiral_s_bl.mdl
vpr_spiral_s_fi.mdl
vpr_spiral_s_gr.mdl
vpr_spiral_s_pu.mdl
vpr_spiral_s_re.mdl
vpr_spiral_s_wh.mdl
vpr_sprope.mdl
vpr_star_blue.mdl
vpr_star_blue_s.mdl
vpr_star_gree.mdl
vpr_star_gree_s.mdl
vpr_star_oran.mdl
vpr_star_oran_s.mdl
vpr_star_purp.mdl
vpr_star_purp_s.mdl
vpr_star_red.mdl
vpr_star_red_s.mdl
vpr_star_whit.mdl
vpr_star_whit_s.mdl
vpr_star_yel.mdl
vpr_star_yel_s.mdl
vpr_sunburst.mdl
vpr_whit.mdl
vpr_yel.mdl
vps_firerain.mdl
vps_firerain_l.mdl
vs_fDragFem.ssf
wblcl_b_051.mdl
wblcl_m_051.mdl
wblcl_t_051.mdl
