al_an_crickets1.wav
al_an_crickets2.wav
al_an_crickets3.wav
al_an_crickets4.wav
al_an_crickets5.wav
al_an_crickets6.wav
al_an_owl_horned.wav
al_an_rooster1.wav
al_an_toads1.wav
al_cv_firebowl1.wav
al_cv_firecamp1.wav
al_cv_firecppot1.wav
al_cv_firelarge1.wav
al_cv_firepit1.wav
al_cv_fireplace1.wav
al_cv_fireplpot1.wav
al_cv_fireptpot1.wav
al_cv_firesmldr1.wav
al_cv_firetorch1.wav
al_cv_firetorch2.wav
al_cv_windmill1.wav
al_en_arrows01.wav
al_en_arrows02.wav
al_en_arrows03.wav
al_en_arrows04.wav
al_en_arrows05.wav
al_en_arrows06.wav
al_en_barrelbrea.wav
al_en_breeze01.wav
al_en_cavewind01.wav
al_en_expbar01.wav
al_en_expbar02.wav
al_en_expbar03.wav
al_en_expbar04.wav
al_en_expbar05.wav
al_en_expbarrel0.wav
al_en_explbarrel.wav
al_en_storm_lp_0.wav
al_en_thunder_di.wav
al_en_windgust_1.wav
al_en_windtreesm.wav
al_en_wind_high_.wav
al_en_wind_low_l.wav
al_en_wind_lp_1.wav
al_en_wind_lp_10.wav
al_en_wind_lp_11.wav
al_en_wind_lp_12.wav
al_en_wind_lp_2.wav
al_en_wind_lp_3.wav
al_en_wind_lp_4.wav
al_en_wind_lp_5.wav
al_en_wind_lp_6.wav
al_en_wind_lp_7.wav
al_en_wind_lp_8.wav
al_en_wind_lp_9.wav
al_en_wind_med_l.wav
al_en_wind_tunne.wav
al_en_wndtrem01.wav
al_en_wndtrem02.wav
al_en_wndtrem03.wav
al_en_wndtrem04.wav
al_en_wndtrem05.wav
al_en_wndtrem06.wav
al_en_woodcreaks.wav
al_en_woodexp01.wav
al_en_woodexp02.wav
al_en_woodexpo01.wav
al_en_woodexpo02.wav
al_fanfare_horn.wav
al_fanfare_trump.wav
al_mg_entrevil1.wav
al_mg_entrmyst1.wav
al_mg_entrscry1.wav
al_mg_entrvevil1.wav
al_mg_entrvscry1.wav
al_mg_evilwhisp1.wav
al_mg_forest1.wav
al_mg_portal4.wav
al_n2_ambclaimld.wav
al_n2_ambclaimst.wav
al_n2_ambdesert1.wav
al_n2_forcefield.wav
al_n2_portboom1.wav
al_n2_portboom2.wav
al_n2_porthumhgh.wav
al_n2_porthumlow.wav
al_n2_porthummed.wav
al_n2_spookdist1.wav
al_n2_weather01.wav
al_n2_weather02.wav
al_n2_weather03.wav
al_na_ambbad1.wav
al_na_ambmtn1.wav
al_na_ambmtn2.wav
al_na_ambrumbl01.wav
al_na_ambrumbl02.wav
al_na_ambrumbl03.wav
al_na_ambswmp1.wav
al_na_drips1.wav
al_na_firelarge1.wav
al_na_firelarge2.wav
al_na_firesmldr1.wav
al_na_lavafire1.wav
al_na_lavagrate1.wav
al_na_lavagrate2.wav
al_na_lavagyser1.wav
al_na_lavapillr1.wav
al_na_lavapool1.wav
al_na_seawaves.wav
al_na_seawaves2.wav
al_na_sludggrat1.wav
al_na_sludggrat2.wav
al_na_sludgpool1.wav
al_na_stream1.wav
al_na_stream2.wav
al_na_stream3.wav
al_na_stream4.wav
al_na_stream5.wav
al_na_stream6.wav
al_na_swamp_amb_.wav
al_pl_ambcrowd1.wav
al_pl_ambinn1.wav
al_pl_ambtown1.wav
al_pl_battle01.wav
al_pl_battle02.wav
al_pl_battlesml1.wav
al_pl_combat01.wav
al_pl_combat_01.wav
al_pl_crwdroar1.wav
al_pl_crwdroar2.wav
al_pl_cultchant1.wav
al_pl_hscream01.wav
al_pl_mobsmall1.wav
al_pl_villscream.wav
al_pl_x2bongolp1.wav
al_pl_x2bongolp2.wav
al_pl_x2tablalp.wav
al_pl_x2wardrum1.wav
al_pl_x2wardrum2.wav
al_pl_yelldockm0.wav
al_shore_A.wav
al_shore_B.wav
al_wt_windcrows.wav
al_wt_windcrows2.wav
al_wt_windowls.wav
al_wt_windowls2.wav
amb_cavedrip_01.wav
amb_cavedrip_02.wav
amb_cavedrip_03.wav
amb_cavedrip_04.wav
amb_cavedrip_05.wav
amb_cavedrip_06.wav
amb_cavedrip_07.wav
amb_cavedrip_08.wav
amb_caverumb_01.wav
amb_caverumb_02.wav
amb_caverumb_03.wav
amb_caverumb_04.wav
amb_caverumb_05.wav
amb_cavewind_01.wav
amb_cavewind_02.wav
amb_cavewind_03.wav
amb_cavewind_04.wav
amb_cavewind_05.wav
amb_metal_creaki.wav
amb_ocean_lp1.wav
amb_ocean_lp2.wav
amb_ocean_lp3.wav
amb_ocean_lp4.wav
amb_ocean_lp5.wav
amb_ocean_lp6.wav
amb_ocean_lp7.wav
amb_rumble_01.wav
amb_rumble_02.wav
amb_rumble_03.wav
amb_rumble_04.wav
amb_rumble_05.wav
amb_shore_01.wav
amb_shore_02.wav
amb_shore_03.wav
amb_shore_04.wav
amb_shore_05.wav
amb_shore_a.wav
amb_shore_b.wav
amb_steam_01.wav
amb_steam_02.wav
amb_steam_03.wav
amb_steam_04.wav
amb_steam_A.wav
amb_windgust_01.wav
amb_windgust_02.wav
amb_windgust_03.wav
amb_windgust_04.wav
amb_windgust_05.wav
amb_work_bench1.wav
as_air_steam_1.wav
as_air_steam_2.wav
as_air_steam_3.wav
as_air_steam_4.wav
as_air_steam_bla.wav
as_air_steam_lp_.wav
as_an_bat1.wav
as_an_bat2.wav
as_an_bat3.wav
as_an_batflap1.wav
as_an_batflap2.wav
as_an_bats1.wav
as_an_bats2.wav
as_an_batsflap1.wav
as_an_batsflap2.wav
as_an_bearwolf1.wav
as_an_bearwolf2.wav
as_an_bearwolf3.wav
as_an_birdflap1.wav
as_an_birdflap2.wav
as_an_birdscary1.wav
as_an_birdscary2.wav
as_an_birdsflap1.wav
as_an_birdsflap2.wav
as_an_bugsscary1.wav
as_an_bugsscary2.wav
as_an_crow1.wav
as_an_crow2.wav
as_an_crows1.wav
as_an_crows2.wav
as_an_crow_caw01.wav
as_an_crow_caw02.wav
as_an_crow_caw03.wav
as_an_crow_caw04.wav
as_an_cryday1.wav
as_an_cryday2.wav
as_an_cryday3.wav
as_an_cryday4.wav
as_an_dishowl01.wav
as_an_dishowl02.wav
as_an_dishowl03.wav
as_an_dishowl04.wav
as_an_dishowl05.wav
as_an_dishowl06.wav
as_an_dragonror1.wav
as_an_dragonror2.wav
as_an_dragonror3.wav
as_an_dragroar1.wav
as_an_frog1.wav
as_an_frogcroak0.wav
as_an_gull1.wav
as_an_gull2.wav
as_an_gulls1.wav
as_an_gulls2.wav
as_an_hawk1.wav
as_an_lizchant1.wav
as_an_lizcheer1.wav
as_an_lizrdhiss1.wav
as_an_lizrdhiss2.wav
as_an_lizrdhiss3.wav
as_an_lizwhisp1.wav
as_an_lizwhisp2.wav
as_an_lizwhisp3.wav
as_an_orccharge1.wav
as_an_owlhoot1.wav
as_an_owlhoot2.wav
as_an_red_tailed.wav
as_an_wolfhowl1.wav
as_an_wolfhowl2.wav
as_an_wolveshwl1.wav
as_an_wolveshwl2.wav
as_an_x2cvbat1.wav
as_an_x2cvbat10.wav
as_an_x2cvbat2.wav
as_an_x2cvbat3.wav
as_an_x2cvbat4.wav
as_an_x2cvbat5.wav
as_an_x2cvbat6.wav
as_an_x2cvbat7.wav
as_an_x2cvbat8.wav
as_an_x2cvbat9.wav
as_an_x2cvhwl1.wav
as_an_x2cvhwl10.wav
as_an_x2cvhwl11.wav
as_an_x2cvhwl12.wav
as_an_x2cvhwl13.wav
as_an_x2cvhwl14.wav
as_an_x2cvhwl15.wav
as_an_x2cvhwl16.wav
as_an_x2cvhwl17.wav
as_an_x2cvhwl18.wav
as_an_x2cvhwl19.wav
as_an_x2cvhwl2.wav
as_an_x2cvhwl20.wav
as_an_x2cvhwl3.wav
as_an_x2cvhwl4.wav
as_an_x2cvhwl5.wav
as_an_x2cvhwl6.wav
as_an_x2cvhwl7.wav
as_an_x2cvhwl8.wav
as_an_x2cvhwl9.wav
as_an_x2spdlrg1.wav
as_an_x2spdlrg10.wav
as_an_x2spdlrg11.wav
as_an_x2spdlrg12.wav
as_an_x2spdlrg13.wav
as_an_x2spdlrg14.wav
as_an_x2spdlrg15.wav
as_an_x2spdlrg16.wav
as_an_x2spdlrg17.wav
as_an_x2spdlrg18.wav
as_an_x2spdlrg19.wav
as_an_x2spdlrg2.wav
as_an_x2spdlrg20.wav
as_an_x2spdlrg3.wav
as_an_x2spdlrg4.wav
as_an_x2spdlrg5.wav
as_an_x2spdlrg6.wav
as_an_x2spdlrg7.wav
as_an_x2spdlrg8.wav
as_an_x2spdlrg9.wav
as_bell_church01.wav
as_bell_tower01.wav
as_cv_alrmbell1.wav
as_cv_barglass1.wav
as_cv_barglass2.wav
as_cv_barglass3.wav
as_cv_barglass4.wav
as_cv_beamcreak1.wav
as_cv_beamcreak2.wav
as_cv_beamcreak3.wav
as_cv_beamcreak4.wav
as_cv_bell1.wav
as_cv_bell2.wav
as_cv_bellship1.wav
as_cv_bellship2.wav
as_cv_belltower1.wav
as_cv_belltower2.wav
as_cv_belltower3.wav
as_cv_bellwind1.wav
as_cv_boilergrn1.wav
as_cv_boilergrn2.wav
as_cv_boomdist1.wav
as_cv_boomdist2.wav
as_cv_brickscrp1.wav
as_cv_brickscrp2.wav
as_cv_claybreak1.wav
as_cv_claybreak2.wav
as_cv_claybreak3.wav
as_cv_clthdress1.wav
as_cv_crank1.wav
as_cv_drums1.wav
as_cv_drums2.wav
as_cv_eulpipe1.wav
as_cv_eulpipe2.wav
as_cv_fireout1.wav
as_cv_flagflap.wav
as_cv_flmewhoosh.wav
as_cv_florcreak1.wav
as_cv_florcreak2.wav
as_cv_florcreak3.wav
as_cv_flute1.wav
as_cv_flute2.wav
as_cv_lute1.wav
as_cv_lute1b.wav
as_cv_watwheel.wav
as_dr_x2tib1cl.wav
as_dr_x2tib1op.wav
as_dr_x2tid1cl.wav
as_dr_x2tid1op.wav
as_dr_x2tii1cl.wav
as_dr_x2tii1op.wav
as_dr_x2ttu10cl.wav
as_dr_x2ttu10op.wav
as_dr_x2ttu1cl.wav
as_dr_x2ttu1op.wav
as_dr_x2ttu2cl.wav
as_dr_x2ttu2op.wav
as_dr_x2ttu3cl.wav
as_dr_x2ttu3op.wav
as_dr_x2ttu4cl.wav
as_dr_x2ttu4op.wav
as_dr_x2ttu5cl.wav
as_dr_x2ttu5op.wav
as_dr_x2ttu6cl.wav
as_dr_x2ttu6op.wav
as_dr_x2ttu7cl.wav
as_dr_x2ttu7op.wav
as_dr_x2ttu8cl.wav
as_dr_x2ttu8op.wav
as_dr_x2ttu9cl.wav
as_dr_x2ttu9op.wav
as_en_woodcol01.wav
as_en_woodcol02.wav
as_fanfare_intro.wav
as_fanfare_long.wav
as_hr_x2chnratl1.wav
as_hr_x2chnratl2.wav
as_hr_x2chnratl3.wav
as_hr_x2chnratl4.wav
as_hr_x2chnratl5.wav
as_hr_x2drnoise1.wav
as_hr_x2drnoise2.wav
as_hr_x2drnoise3.wav
as_hr_x2drnoise4.wav
as_hr_x2drnoise5.wav
as_hr_x2drnoise6.wav
as_hr_x2drnoise7.wav
as_hr_x2drnoise8.wav
as_hr_x2ghost1.wav
as_hr_x2ghost10.wav
as_hr_x2ghost2.wav
as_hr_x2ghost3.wav
as_hr_x2ghost4.wav
as_hr_x2ghost5.wav
as_hr_x2ghost6.wav
as_hr_x2ghost7.wav
as_hr_x2ghost8.wav
as_hr_x2ghost9.wav
as_n2_circuiton1.wav
as_n2_cresendo1.wav
as_n2_cresendo1a.wav
as_n2_cresendo2.wav
as_n2_cresendo2a.wav
as_n2_dragoland1.wav
as_n2_dragoland2.wav
as_n2_femscream1.wav
as_n2_forcefield.wav
as_n2_fortdown1.wav
as_n2_gateboom1.wav
as_n2_gateram1.wav
as_n2_guardlose1.wav
as_n2_koraportal.wav
as_n2_lightswitc.wav
as_n2_lutenote01.wav
as_n2_lutenote02.wav
as_n2_lutenote03.wav
as_n2_lutenote04.wav
as_n2_lutenote05.wav
as_n2_lutenote06.wav
as_n2_lutenote07.wav
as_n2_luteriff01.wav
as_n2_luteriff02.wav
as_n2_luteriff03.wav
as_n2_luteriff04.wav
as_n2_luteriff05.wav
as_n2_luteriff06.wav
as_n2_luteriff07.wav
as_n2_luteriff08.wav
as_n2_metalscrap.wav
as_n2_portalhum.wav
as_n2_reavborn1.wav
as_n2_reavlose1.wav
as_n2_smkebomb1.wav
as_n2_statuboom1.wav
as_n2_undeadcry1.wav
as_n2_wizalarm1.wav
as_n2_wizblink1.wav
as_n2_youlose1.wav
as_na_ambforest1.wav
as_na_dusty1.wav
as_na_rockcavlg1.wav
as_na_rockcavsm1.wav
as_na_rockcavsm2.wav
as_na_rockfalgl1.wav
as_na_rockfalgl2.wav
as_na_rockfallg1.wav
as_na_rockfallg2.wav
as_na_rockfalsm1.wav
as_na_rockfalsm2.wav
as_na_rockfalsm3.wav
as_na_rockfalsm4.wav
as_na_rockfalsm5.wav
as_na_watcliff.wav
as_na_watwave.wav
as_pl_armycollid.wav
as_pl_barbcharge.wav
as_pl_batcryhum1.wav
as_pl_batcryshad.wav
as_pl_battle02.wav
as_pl_chantingf1.wav
as_pl_chantingf2.wav
as_pl_chantingm1.wav
as_pl_chantingm2.wav
as_pl_crwdroar1.wav
as_pl_crwdroar2.wav
as_pl_crwdroar3.wav
as_pl_crwdslol1.wav
as_pl_crwdsm1.wav
as_pl_crwdsm2.wav
as_pl_crwdsmurm1.wav
as_pl_crwdsnegi0.wav
as_pl_crwdsposi0.wav
as_pl_evilchantm.wav
as_pl_fglaugh1.wav
as_pl_genbattle1.wav
as_pl_genbattle2.wav
as_pl_horngood1.wav
as_pl_hscream01.wav
as_pl_hscream02.wav
as_pl_hscream03.wav
as_pl_hscream04.wav
as_pl_hscream05.wav
as_pl_hscream06.wav
as_pl_hscream07.wav
as_pl_hummldead0.wav
as_pl_laughincf1.wav
as_pl_laughincf2.wav
as_pl_laughincm1.wav
as_pl_laughingf1.wav
as_pl_laughingf2.wav
as_pl_laughingf3.wav
as_pl_laughingf4.wav
as_pl_laughingm1.wav
as_pl_laughingm2.wav
as_pl_laughingm3.wav
as_pl_laughingm4.wav
as_pl_laughingm5.wav
as_pl_light_wall.wav
as_pl_marketgrp1.wav
as_pl_marketgrp2.wav
as_pl_marketgrp3.wav
as_pl_marketgrp4.wav
as_pl_mencharge1.wav
as_pl_merchntf1.wav
as_pl_merchntf10.wav
as_pl_merchntf11.wav
as_pl_merchntf12.wav
as_pl_merchntf2.wav
as_pl_merchntf3.wav
as_pl_merchntf4.wav
as_pl_merchntf5.wav
as_pl_merchntf6.wav
as_pl_merchntf7.wav
as_pl_merchntf8.wav
as_pl_merchntf9.wav
as_pl_merchntm1.wav
as_pl_merchntm10.wav
as_pl_merchntm11.wav
as_pl_merchntm12.wav
as_pl_merchntm2.wav
as_pl_merchntm3.wav
as_pl_merchntm4.wav
as_pl_merchntm5.wav
as_pl_merchntm6.wav
as_pl_merchntm7.wav
as_pl_merchntm8.wav
as_pl_merchntm9.wav
as_pl_noblaughi1.wav
as_pl_noblaughi2.wav
as_pl_noblaugho1.wav
as_pl_noblaugho2.wav
as_pl_noblaugho3.wav
as_pl_nobtalk1.wav
as_pl_nobtalk2.wav
as_pl_nobtalk3.wav
as_pl_nobtntgrp1.wav
as_pl_nobtntgrp2.wav
as_pl_nobtntgrp3.wav
as_pl_nobtntgrp4.wav
as_pl_nobyaygrp1.wav
as_pl_nobyaygrp2.wav
as_pl_nobyaygrp3.wav
as_pl_nobyaygrp4.wav
as_pl_officerm1.wav
as_pl_officerm2.wav
as_pl_officerm3.wav
as_pl_officerm4.wav
as_pl_paincryf1.wav
as_pl_singclap1.wav
as_pl_snoringf1.wav
as_pl_snoringm1.wav
as_pl_snoringm2.wav
as_pl_walla01.wav
as_pl_walla02.wav
as_pl_walla03.wav
as_pl_walla04.wav
as_pl_walla05.wav
as_pl_walla06.wav
as_pl_walla07.wav
as_pl_walla08.wav
as_pl_walla09.wav
as_pl_walla10.wav
as_pl_walla11.wav
as_pl_walla12.wav
as_pl_walla13.wav
as_pl_x2screamf1.wav
as_pl_x2screamf2.wav
as_pl_x2screamf3.wav
as_pl_x2screamf4.wav
as_pl_x2screamf5.wav
as_pl_x2screamm1.wav
as_pl_x2screamm2.wav
as_pl_x2screamm3.wav
as_pl_x2screamm4.wav
as_pl_x2screamm5.wav
as_wt_gusforst1.wav
as_wt_gustcavrn1.wav
as_wt_gustchasm1.wav
as_wt_gustdraft1.wav
as_wt_gustforst1.wav
as_wt_gustgrass1.wav
as_wt_gustsoft1.wav
as_wt_guststrng1.wav
as_wt_swmpdrizl1.wav
as_wt_thundercl1.wav
as_wt_thundercl2.wav
as_wt_thundercl3.wav
as_wt_thundercl4.wav
as_wt_thunderds1.wav
as_wt_thunderds2.wav
as_wt_thunderds3.wav
as_wt_thunderds4.wav
bardsong_lute_01.wav
bardsong_lute_02.wav
bardsong_lute_03.wav
BardSong_lute_04.wav
cb_bu_materlrg.wav
cb_bu_matersml.wav
cb_bu_metallrg.wav
cb_bu_metalsml.wav
cb_bu_stonelrg.wav
cb_bu_stonesml.wav
cb_bu_woodlrg.wav
cb_bu_woodlrg01.wav
cb_bu_woodlrg02.wav
cb_bu_woodmed01.wav
cb_bu_woodmed02.wav
cb_bu_woodmed03.wav
cb_bu_woodmed04.wav
cb_bu_woodsml.wav
cb_ht_arrow1.wav
cb_ht_arrow2.wav
cb_ht_bladebone0.wav
cb_ht_bladechan1.wav
cb_ht_bladechan2.wav
cb_ht_bladeleth1.wav
cb_ht_bladeleth2.wav
cb_ht_bladeplat1.wav
cb_ht_bladeplat2.wav
cb_ht_bladeston1.wav
cb_ht_bladeston2.wav
cb_ht_bladewood1.wav
cb_ht_bladewood2.wav
cb_ht_bldbone01.wav
cb_ht_bldbone02.wav
cb_ht_bldbone03.wav
cb_ht_bldbone04.wav
cb_ht_bldchan01.wav
cb_ht_bldchan02.wav
cb_ht_bldchan03.wav
cb_ht_bldchan04.wav
cb_ht_bldleth01.wav
cb_ht_bldleth02.wav
cb_ht_bldleth03.wav
cb_ht_bldleth04.wav
cb_ht_bldleth05.wav
cb_ht_bldplat01.wav
cb_ht_bldplat02.wav
cb_ht_bldplat03.wav
cb_ht_bldplat04.wav
cb_ht_bldplat05.wav
cb_ht_bldplat06.wav
cb_ht_bldston01.wav
cb_ht_bldston02.wav
cb_ht_bldston03.wav
cb_ht_bldston04.wav
cb_ht_bldwood01.wav
cb_ht_bldwood02.wav
cb_ht_bldwood03.wav
cb_ht_bldwood04.wav
cb_ht_bullet1.wav
cb_ht_chitin1.wav
cb_ht_chitin2.wav
cb_ht_chunk.wav
cb_ht_critical.wav
cb_ht_daggrbone0.wav
cb_ht_daggrchan1.wav
cb_ht_daggrchan2.wav
cb_ht_daggrleth1.wav
cb_ht_daggrleth2.wav
cb_ht_daggrplat1.wav
cb_ht_daggrplat2.wav
cb_ht_daggrston.wav
cb_ht_daggrwood.wav
cb_ht_dart1.wav
cb_ht_dgrbone01.wav
cb_ht_dgrbone02.wav
cb_ht_dgrbone03.wav
cb_ht_dgrbone04.wav
cb_ht_dgrchan01.wav
cb_ht_dgrchan02.wav
cb_ht_dgrchan03.wav
cb_ht_dgrchan04.wav
cb_ht_dgrleth01.wav
cb_ht_dgrleth02.wav
cb_ht_dgrleth03.wav
cb_ht_dgrleth04.wav
cb_ht_dgrleth05.wav
cb_ht_dgrplat01.wav
cb_ht_dgrplat02.wav
cb_ht_dgrplat03.wav
cb_ht_dgrplat04.wav
cb_ht_dgrplat05.wav
cb_ht_dgrplat06.wav
cb_ht_dgrston01.wav
cb_ht_dgrston02.wav
cb_ht_dgrston03.wav
cb_ht_dgrston04.wav
cb_ht_dgrwood01.wav
cb_ht_dgrwood02.wav
cb_ht_dgrwood03.wav
cb_ht_dgrwood04.wav
cb_ht_ethereal1.wav
cb_ht_ethereal2.wav
cb_ht_fleshchan1.wav
cb_ht_fleshchan2.wav
cb_ht_fleshleth1.wav
cb_ht_fleshleth2.wav
cb_ht_fleshplat1.wav
cb_ht_fleshplat2.wav
cb_ht_fleshston1.wav
cb_ht_fleshston2.wav
cb_ht_fleshwood1.wav
cb_ht_fleshwood2.wav
cb_ht_foliage.wav
cb_ht_material.wav
cb_ht_metblchan1.wav
cb_ht_metblchan2.wav
cb_ht_metblleth1.wav
cb_ht_metblleth2.wav
cb_ht_metblplat1.wav
cb_ht_metblplat2.wav
cb_ht_metblston1.wav
cb_ht_metblston2.wav
cb_ht_metblwood1.wav
cb_ht_metblwood2.wav
cb_ht_scale1.wav
cb_ht_scale2.wav
cb_ht_throwaxe1.wav
cb_ht_whipchan1.wav
cb_ht_whipchan2.wav
cb_ht_whipleth1.wav
cb_ht_whipleth2.wav
cb_ht_whipplat1.wav
cb_ht_whipplat2.wav
cb_ht_whipston.wav
cb_ht_whipwood.wav
cb_ht_wodblchan1.wav
cb_ht_wodblchan2.wav
cb_ht_wodblleth1.wav
cb_ht_wodblleth2.wav
cb_ht_wodblplat1.wav
cb_ht_wodblplat2.wav
cb_ht_wodblston1.wav
cb_ht_wodblston2.wav
cb_ht_wodblwood1.wav
cb_ht_wodblwood2.wav
cb_pa_blade.wav
cb_pa_bld01.wav
cb_pa_bld02.wav
cb_pa_bld03.wav
cb_pa_bld04.wav
cb_pa_bld05.wav
cb_pa_bld06.wav
cb_pa_flail.wav
cb_pa_metalblunt.wav
cb_pa_other.wav
cb_pa_unarmed.wav
cb_pa_unarmed01.wav
cb_pa_unarmed02.wav
cb_pa_unarmed03.wav
cb_pa_unarmed04.wav
cb_pa_unarmed05.wav
cb_pa_wood.wav
cb_pa_wood01.wav
cb_pa_wood02.wav
cb_pa_wood03.wav
cb_pa_wood04.wav
cb_sh_ballista.wav
cb_sh_bow1.wav
cb_sh_bow2.wav
cb_sh_bowlow1.wav
cb_sh_bowlow2.wav
cb_sh_catapult.wav
cb_sh_prjtlacid.wav
cb_sh_prjtlcold.wav
cb_sh_prjtlelec.wav
cb_sh_prjtlfire.wav
cb_sh_prjtlsonc.wav
cb_sh_sling1.wav
cb_sh_sling2.wav
cb_sh_xbow1.wav
cb_sh_xbow2.wav
cb_sh_xbowlow1.wav
cb_sh_xbowlow2.wav
cb_sh_xbowreal1.wav
cb_sh_xbowreal2.wav
cb_sh_xbowreallo.wav
cb_sw_armedlow1.wav
cb_sw_armedlow2.wav
cb_sw_blade01.wav
cb_sw_blade02.wav
cb_sw_blade03.wav
cb_sw_blade04.wav
cb_sw_blade1.wav
cb_sw_blade2.wav
cb_sw_bladehi1.wav
cb_sw_bladehi2.wav
cb_sw_bladelow1.wav
cb_sw_bladelow2.wav
cb_sw_bld01.wav
cb_sw_bld02.wav
cb_sw_bld03.wav
cb_sw_bld04.wav
cb_sw_blunt1.wav
cb_sw_blunt2.wav
cb_sw_chain1.wav
cb_sw_chain2.wav
cb_sw_chainlow1.wav
cb_sw_chainlow2.wav
cb_sw_pole1.wav
cb_sw_pole2.wav
cb_sw_spear1.wav
cb_sw_unarmdlow1.wav
cb_sw_unarmdlow2.wav
cb_sw_unarmed01.wav
cb_sw_unarmed02.wav
cb_sw_unarmed03.wav
cb_sw_unarmed04.wav
cb_sw_unarmed1.wav
cb_sw_unarmed2.wav
cb_sw_unarmedlow.wav
cb_sw_unarmlo01.wav
cb_sw_unarmlo02.wav
cb_sw_unarmlo03.wav
cb_sw_unarmlo04.wav
cb_sw_whip1.wav
cb_sw_whip2.wav
cb_whirlwind.wav
cs_demon_approac.wav
cs_demon_banish.wav
cs_demon_door.wav
cs_knocking.wav
cs_kos_death.wav
cs_portalboom.wav
cs_portalsuck.wav
cs_punches.wav
cs_pvdearthele.wav
cs_rockslide.wav
cs_shipport.wav
cs_shipsink.wav
cs_shipsink_long.wav
cs_silversword.wav
cs_spireboom1.wav
cs_spireboom2.wav
cs_spireboom3.wav
cs_sunboom.wav
cs_zeeaire_cast.wav
cs_zeeaire_chest.wav
cs_zeeaire_shard.wav
c_horse_atk1.wav
c_horse_atk2.wav
c_horse_atk3.wav
c_horse_bat1.wav
c_horse_bat2.wav
c_horse_dead.wav
c_horse_hit1.wav
c_horse_hit2.wav
c_horse_slct.wav
c_killian_atk1.wav
c_killian_atk2.wav
c_killian_atk3.wav
c_killian_attk.wav
c_killian_bad.wav
c_killian_bat1.wav
c_killian_bat2.wav
c_killian_bat3.wav
c_killian_bye.wav
c_killian_can.wav
c_killian_cant.wav
c_killian_cuss.wav
c_killian_dead.wav
c_killian_done.wav
c_killian_enmy.wav
c_killian_good.wav
c_killian_haha.wav
c_killian_heal.wav
c_killian_help.wav
c_killian_hi.wav
c_killian_hit1.wav
c_killian_hit2.wav
c_killian_hit3.wav
c_killian_move.wav
c_killian_no.wav
c_killian_pick.wav
c_killian_rest.wav
c_killian_say.wav
c_killian_sel.wav
c_killian_tant.wav
c_killian_vict.wav
c_killian_warn.wav
c_killian_yes.wav
c_shadowreaver_c.wav
c_snake_atk1.wav
c_snake_atk2.wav
c_snake_atk3.wav
c_snake_bat1.wav
c_snake_bat2.wav
c_snake_bat3.wav
c_snake_dead.wav
c_snake_hit1.wav
c_snake_hit2.wav
c_snake_hit3.wav
c_snake_slct.wav
dr_woodlrg_cl01.wav
dr_woodlrg_op01.wav
Earth_Explosion_.wav
eff_summon01.wav
fs_dirt_horse1.wav
fs_dirt_horse2.wav
fs_dirt_horse3.wav
fs_grass_horse1.wav
fs_grass_horse2.wav
fs_grass_horse3.wav
fs_metal_horse1.wav
fs_metal_horse2.wav
fs_metal_horse3.wav
fs_pudle_horse1.wav
fs_pudle_horse2.wav
fs_pudle_horse3.wav
fs_snow_horse1.wav
fs_snow_horse2.wav
fs_snow_horse3.wav
fs_stone_horse1.wav
fs_stone_horse2.wav
fs_stone_horse3.wav
fs_water_horse1.wav
fs_water_horse2.wav
fs_water_horse3.wav
fs_wood_horse1.wav
fs_wood_horse2.wav
fs_wood_horse3.wav
in_tent_flap02.wav
in_tent_flap03.wav
in_tent_flap04.wav
in_tent_rain01.wav
in_thunder01.wav
in_thunder02.wav
in_thunder03.wav
in_thunder04.wav
in_thunder05.wav
in_thunder06.wav
in_thunder07.wav
in_wood_rain01.wav
jst_ambientcrowd.wav
jst_fall.wav
jst_joustboos.wav
jst_joustyay.wav
jst_lancebreak.wav
jst_lancehit.wav
jst_metalimpact.wav
jst_metalimpact2.wav
jst_prejoust.wav
list_sounds1.res
sar_thunder1.wav
sco_evilwhisp.wav
sco_wind1.wav
sff_combansh.wav
sff_explfire.wav
sim_exp2flame.wav
sim_exp2light.wav
sim_exp2light1.wav
spr_fireball.wav
tns_draw_down.wav
tns_draw_up.wav
vs_chant_B1.wav
vs_chant_B2.wav
vs_chant_B3.wav
vs_chant_B4.wav
vs_chant_B5.wav
vs_chant_conj_hf.wav
vs_chant_conj_hm.wav
vs_chant_conj_lf.wav
vs_chant_conj_lm.wav
vs_chant_di_hf.wav
vs_chant_di_hm.wav
vs_chant_ench_hf.wav
vs_chant_ench_hm.wav
vs_chant_ench_lf.wav
vs_chant_ench_lm.wav
vs_chant_evoc_hf.wav
vs_chant_evoc_hm.wav
vs_chant_evoc_lf.wav
vs_chant_evoc_lm.wav
vs_chant_gi_lf.wav
vs_chant_gi_lm.wav
vs_chant_illu_hf.wav
vs_chant_illu_hm.wav
vs_chant_illu_lf.wav
vs_chant_illu_lm.wav
vs_chant_lei_hf.wav
vs_chant_lei_hm.wav
vs_chant_li_lf.wav
vs_chant_li_lm.wav
vs_chant_necr_hf.wav
vs_chant_necr_hm.wav
vs_chant_necr_lf.wav
vs_chant_necr_lm.wav
vs_fDragFem_atk1.wav
vs_fDragFem_atk2.wav
vs_fDragFem_atk3.wav
vs_fDragFem_attk.wav
vs_fDragFem_bad.wav
vs_fDragFem_bat1.wav
vs_fDragFem_bat2.wav
vs_fDragFem_bat3.wav
vs_fDragFem_bore.wav
vs_fDragFem_bye.wav
vs_fDragFem_can.wav
vs_fDragFem_cant.wav
vs_fDragFem_cuss.wav
vs_fDragFem_dead.wav
vs_fDragFem_done.wav
vs_fDragFem_dyin.wav
vs_fDragFem_encm.wav
vs_fDragFem_enmy.wav
vs_fDragFem_flee.wav
vs_fDragFem_foll.wav
vs_fDragFem_gard.wav
vs_fDragFem_good.wav
vs_fDragFem_grup.wav
vs_fDragFem_haha.wav
vs_fDragFem_heal.wav
vs_fDragFem_help.wav
vs_fDragFem_hi.wav
vs_fDragFem_hide.wav
vs_fDragFem_hit1.wav
vs_fDragFem_hit2.wav
vs_fDragFem_hit3.wav
vs_fDragFem_hold.wav
vs_fDragFem_inff.wav
vs_fDragFem_look.wav
vs_fDragFem_move.wav
vs_fDragFem_no.wav
vs_fDragFem_pick.wav
vs_fDragFem_rest.wav
vs_fDragFem_say.wav
vs_fDragFem_sel.wav
vs_fDragFem_sick.wav
vs_fDragFem_spel.wav
vs_fDragFem_srch.wav
vs_fDragFem_stop.wav
vs_fDragFem_tant.wav
vs_fDragFem_thnx.wav
vs_fDragFem_vict.wav
vs_fDragFem_warn.wav
vs_fDragFem_yes.wav
